{
  "count": 2979,
  "next": "https://bitnodes.21.co/api/v1/nodes/leaderboard/?limit=5&page=4",
  "previous": "https://bitnodes.21.co/api/v1/nodes/leaderboard/?limit=5&page=2",
  "results": [
    {
      "node": "217.11.225.189:8333",
      "vi": "1.0000",
      "si": "1.0000",
      "hi": "1.0000",
      "ai": "1.0000",
      "pi": "1.0000",
      "dli": "1.0000",
      "dui": "1.0000",
      "wli": "1.0000",
      "wui": "1.0000",
      "ni": "0.0244",
      "bi": "1.0000",
      "peer_index": "9.1131",
      "rank": 10
    },
    {
      "node": "91.107.64.143:8333",
      "vi": "1.0000",
      "si": "1.0000",
      "hi": "1.0000",
      "ai": "1.0000",
      "pi": "1.0000",
      "dli": "1.0000",
      "dui": "1.0000",
      "wli": "1.0000",
      "wui": "1.0000",
      "ni": "0.0243",
      "bi": "1.0000",
      "peer_index": "9.1130",
      "rank": 11
    },
    {
      "node": "193.165.138.90:8333",
      "vi": "1.0000",
      "si": "1.0000",
      "hi": "1.0000",
      "ai": "1.0000",
      "pi": "1.0000",
      "dli": "1.0000",
      "dui": "1.0000",
      "wli": "1.0000",
      "wui": "1.0000",
      "ni": "0.0243",
      "bi": "1.0000",
      "peer_index": "9.1130",
      "rank": 11
    },
    {
      "node": "176.223.201.198:8333",
      "vi": "1.0000",
      "si": "1.0000",
      "hi": "1.0000",
      "ai": "1.0000",
      "pi": "1.0000",
      "dli": "1.0000",
      "dui": "1.0000",
      "wli": "1.0000",
      "wui": "1.0000",
      "ni": "0.0239",
      "bi": "1.0000",
      "peer_index": "9.1126",
      "rank": 12
    },
    {
      "node": "23.108.83.12:8333",
      "vi": "1.0000",
      "si": "1.0000",
      "hi": "1.0000",
      "ai": "1.0000",
      "pi": "1.0000",
      "dli": "1.0000",
      "dui": "1.0000",
      "wli": "1.0000",
      "wui": "1.0000",
      "ni": "0.0234",
      "bi": "1.0000",
      "peer_index": "9.1122",
      "rank": 13
    }
  ]
}
