{
  "count": 4860,
  "next": "https://bitnodes.21.co/api/v1/nodes/leaderboard/?page=2",
  "previous": null,
  "results": [
    {
      "node": "74.124.62.108:8333",
      "vi": "1.0000",
      "si": "1.0000",
      "hi": "1.0000",
      "ai": "1.0000",
      "pi": "1.0000",
      "dli": "1.0000",
      "dui": "1.0000",
      "wli": "1.0000",
      "wui": "1.0000",
      "ni": "0.0587",
      "bi": "1.0000",
      "peer_index": "9.1443",
      "rank": 1
    },
    {
      "node": "107.155.107.88:8333",
      "vi": "1.0000",
      "si": "1.0000",
      "hi": "1.0000",
      "ai": "1.0000",
      "pi": "1.0000",
      "dli": "1.0000",
      "dui": "1.0000",
      "wli": "1.0000",
      "wui": "1.0000",
      "ni": "0.0081",
      "bi": "1.0000",
      "peer_index": "9.0983",
      "rank": 10
    }
  ]
}
